<?xml version="1.0" encoding="UTF-8" standalone="no"?>
<svg
   xmlns:dc="http://purl.org/dc/elements/1.1/"
   xmlns:cc="http://creativecommons.org/ns#"
   xmlns:rdf="http://www.w3.org/1999/02/22-rdf-syntax-ns#"
   xmlns:svg="http://www.w3.org/2000/svg"
   xmlns="http://www.w3.org/2000/svg"
   xmlns:sodipodi="http://sodipodi.sourceforge.net/DTD/sodipodi-0.dtd"
   xmlns:inkscape="http://www.inkscape.org/namespaces/inkscape"
   width="512pt"
   height="512pt"
   viewBox="0 0 180.62222 180.62222"
   version="1.1"
   id="svg123"
   inkscape:version="1.0 (4035a4f, 2020-05-01)"
   sodipodi:docname="yud.svg"
   inkscape:export-filename="/Users/dan/Documents/okey_kompyuter/yiddish-keys/img/yud-orange.png"
   inkscape:export-xdpi="72"
   inkscape:export-ydpi="72">
  <title
     id="title125">yellow alef</title>
  <defs
     id="defs117">
    <rect
       x="152.77849"
       y="22.467425"
       width="154.27632"
       height="157.77125"
       id="rect129" />
  </defs>
  <sodipodi:namedview
     inkscape:snap-tangential="true"
     inkscape:snap-perpendicular="true"
     inkscape:snap-path-mask="true"
     inkscape:snap-path-clip="true"
     objecttolerance="20"
     inkscape:lockguides="true"
     id="base"
     pagecolor="#ffffff"
     bordercolor="#666666"
     borderopacity="1.0"
     inkscape:pageopacity="0.0"
     inkscape:pageshadow="2"
     inkscape:zoom="0.62372508"
     inkscape:cx="188.00768"
     inkscape:cy="342.51858"
     inkscape:document-units="pt"
     inkscape:current-layer="layer1"
     inkscape:document-rotation="0"
     showgrid="false"
     units="pt"
     inkscape:pagecheckerboard="false"
     borderlayer="false"
     inkscape:showpageshadow="false"
     showborder="true"
     inkscape:window-width="1436"
     inkscape:window-height="855"
     inkscape:window-x="4"
     inkscape:window-y="23"
     inkscape:window-maximized="1" />
  <metadata
     id="metadata120">
    <rdf:RDF>
      <cc:Work
         rdf:about="">
        <dc:format>image/svg+xml</dc:format>
        <dc:type
           rdf:resource="http://purl.org/dc/dcmitype/StillImage" />
        <dc:title>yellow alef</dc:title>
        <dc:creator>
          <cc:Agent>
            <dc:title>Daniel Nemenyi</dc:title>
          </cc:Agent>
        </dc:creator>
        <dc:publisher>
          <cc:Agent>
            <dc:title>okey_kompyuter</dc:title>
          </cc:Agent>
        </dc:publisher>
        <dc:rights>
          <cc:Agent>
            <dc:title />
          </cc:Agent>
        </dc:rights>
        <cc:license
           rdf:resource="GPL-3" />
      </cc:Work>
    </rdf:RDF>
  </metadata>
  <g
     inkscape:label="Layer 1"
     inkscape:groupmode="layer"
     id="layer1">
    <text
       xml:space="preserve"
       id="text127"
       style="font-style:normal;font-weight:normal;font-size:10.58329999999999949px;line-height:1.25;font-family:sans-serif;white-space:pre;shape-inside:url(#rect129);fill:#f57900;fill-opacity:1;stroke:none;"
       transform="translate(-2.4606565)" />
    <text
       xml:space="preserve"
       style="font-style:normal;font-weight:normal;font-size:10.58329999999999949px;line-height:1.25;font-family:sans-serif;fill:#f57900;fill-opacity:1;stroke:none;stroke-width:0.264583;"
       x="292.11227"
       y="159.26909"
       id="text135"><tspan
         sodipodi:role="line"
         id="tspan133"
         x="292.11227"
         y="159.26909"
         style="stroke-width:0.264583;fill:#f57900;" /></text>
    <text
       xml:space="preserve"
       style="font-style:normal;font-variant:normal;font-weight:normal;font-stretch:normal;font-size:10.58329999999999949px;line-height:1.25;font-family:'David Libre';-inkscape-font-specification:'David Libre';fill:#f57900;fill-opacity:1;stroke:none;stroke-width:0.264583;"
       x="36.982159"
       y="117.82916"
       id="text139"><tspan
         sodipodi:role="line"
         id="tspan137"
         x="36.982159"
         y="117.82916"
         style="font-style:normal;font-variant:normal;font-weight:normal;font-stretch:normal;font-family:'David Libre';-inkscape-font-specification:'David Libre';stroke-width:0.264583;fill:#f57900;" /></text>
    <text
       xml:space="preserve"
       style="font-style:normal;font-variant:normal;font-weight:normal;font-stretch:normal;font-size:437.66599999999999682px;line-height:1.25;font-family:'David Libre';-inkscape-font-specification:'David Libre';fill:#f57900;fill-opacity:1;stroke:none;stroke-width:0.285433;"
       x="23.492941"
       y="263.04736"
       id="text147"
       transform="scale(1.0056991,0.9943332)"><tspan
         sodipodi:role="line"
         id="tspan145"
         x="23.492941"
         y="263.04736"
         style="font-style:normal;font-variant:normal;font-weight:900;font-stretch:normal;font-size:437.66599999999999682px;font-family:'Frank Ruhl Libre';-inkscape-font-specification:'Frank Ruhl Libre Heavy';stroke-width:0.285433;fill:#f57900;">י</tspan></text>
    <text
       id="text26"
       y="136.65517"
       x="157.53775"
       style="font-style:normal;font-weight:normal;font-size:10.58329999999999949px;line-height:1.25;font-family:sans-serif;fill:#f57900;fill-opacity:1;stroke:none;stroke-width:0.264583;"
       xml:space="preserve"><tspan
         style="font-style:normal;font-variant:normal;font-weight:normal;font-stretch:normal;font-family:'Frank Ruhl Libre';-inkscape-font-specification:'Frank Ruhl Libre';stroke-width:0.264583;fill:#f57900;"
         y="136.65517"
         x="157.53775"
         id="tspan24"
         sodipodi:role="line" /></text>
  </g>
</svg>
